axi4stream_vip_axi4streampc.sv,systemverilog,xilinx_vip,../../../../../../../../../../Xilinx/Vivado/2019.1/data/xilinx_vip/hdl/axi4stream_vip_axi4streampc.sv,
axi_vip_axi4pc.sv,systemverilog,xilinx_vip,../../../../../../../../../../Xilinx/Vivado/2019.1/data/xilinx_vip/hdl/axi_vip_axi4pc.sv,
xil_common_vip_pkg.sv,systemverilog,xilinx_vip,../../../../../../../../../../Xilinx/Vivado/2019.1/data/xilinx_vip/hdl/xil_common_vip_pkg.sv,
axi4stream_vip_pkg.sv,systemverilog,xilinx_vip,../../../../../../../../../../Xilinx/Vivado/2019.1/data/xilinx_vip/hdl/axi4stream_vip_pkg.sv,
axi_vip_pkg.sv,systemverilog,xilinx_vip,../../../../../../../../../../Xilinx/Vivado/2019.1/data/xilinx_vip/hdl/axi_vip_pkg.sv,
axi4stream_vip_if.sv,systemverilog,xilinx_vip,../../../../../../../../../../Xilinx/Vivado/2019.1/data/xilinx_vip/hdl/axi4stream_vip_if.sv,
axi_vip_if.sv,systemverilog,xilinx_vip,../../../../../../../../../../Xilinx/Vivado/2019.1/data/xilinx_vip/hdl/axi_vip_if.sv,
clk_vip_if.sv,systemverilog,xilinx_vip,../../../../../../../../../../Xilinx/Vivado/2019.1/data/xilinx_vip/hdl/clk_vip_if.sv,
rst_vip_if.sv,systemverilog,xilinx_vip,../../../../../../../../../../Xilinx/Vivado/2019.1/data/xilinx_vip/hdl/rst_vip_if.sv,
xpm_cdc.sv,systemverilog,xil_defaultlib,../../../../../../../../../../Xilinx/Vivado/2019.1/data/ip/xpm/xpm_cdc/hdl/xpm_cdc.sv,
xpm_fifo.sv,systemverilog,xil_defaultlib,../../../../../../../../../../Xilinx/Vivado/2019.1/data/ip/xpm/xpm_fifo/hdl/xpm_fifo.sv,
xpm_memory.sv,systemverilog,xil_defaultlib,../../../../../../../../../../Xilinx/Vivado/2019.1/data/ip/xpm/xpm_memory/hdl/xpm_memory.sv,
xpm_VCOMP.vhd,vhdl,xpm,../../../../../../../../../../Xilinx/Vivado/2019.1/data/ip/xpm/xpm_VCOMP.vhd,
fifo_generator_vlog_beh.v,verilog,fifo_generator_v13_2_4,../../../ipstatic/simulation/fifo_generator_vlog_beh.v,
fifo_generator_v13_2_rfs.vhd,vhdl,fifo_generator_v13_2_4,../../../ipstatic/hdl/fifo_generator_v13_2_rfs.vhd,
fifo_generator_v13_2_rfs.v,verilog,fifo_generator_v13_2_4,../../../ipstatic/hdl/fifo_generator_v13_2_rfs.v,
fifosd_10x16.v,verilog,xil_defaultlib,../../../../Noeun_A1.srcs/sources_1/ip/fifosd_10x16/sim/fifosd_10x16.v,
glbl.v,Verilog,xil_defaultlib,glbl.v
