axi4stream_vip_axi4streampc.sv,systemverilog,xilinx_vip,../../../../../../../../../../Xilinx/Vivado/2019.1/data/xilinx_vip/hdl/axi4stream_vip_axi4streampc.sv,
axi_vip_axi4pc.sv,systemverilog,xilinx_vip,../../../../../../../../../../Xilinx/Vivado/2019.1/data/xilinx_vip/hdl/axi_vip_axi4pc.sv,
xil_common_vip_pkg.sv,systemverilog,xilinx_vip,../../../../../../../../../../Xilinx/Vivado/2019.1/data/xilinx_vip/hdl/xil_common_vip_pkg.sv,
axi4stream_vip_pkg.sv,systemverilog,xilinx_vip,../../../../../../../../../../Xilinx/Vivado/2019.1/data/xilinx_vip/hdl/axi4stream_vip_pkg.sv,
axi_vip_pkg.sv,systemverilog,xilinx_vip,../../../../../../../../../../Xilinx/Vivado/2019.1/data/xilinx_vip/hdl/axi_vip_pkg.sv,
axi4stream_vip_if.sv,systemverilog,xilinx_vip,../../../../../../../../../../Xilinx/Vivado/2019.1/data/xilinx_vip/hdl/axi4stream_vip_if.sv,
axi_vip_if.sv,systemverilog,xilinx_vip,../../../../../../../../../../Xilinx/Vivado/2019.1/data/xilinx_vip/hdl/axi_vip_if.sv,
clk_vip_if.sv,systemverilog,xilinx_vip,../../../../../../../../../../Xilinx/Vivado/2019.1/data/xilinx_vip/hdl/clk_vip_if.sv,
rst_vip_if.sv,systemverilog,xilinx_vip,../../../../../../../../../../Xilinx/Vivado/2019.1/data/xilinx_vip/hdl/rst_vip_if.sv,
xpm_cdc.sv,systemverilog,xil_defaultlib,../../../../../../../../../../Xilinx/Vivado/2019.1/data/ip/xpm/xpm_cdc/hdl/xpm_cdc.sv,
xpm_fifo.sv,systemverilog,xil_defaultlib,../../../../../../../../../../Xilinx/Vivado/2019.1/data/ip/xpm/xpm_fifo/hdl/xpm_fifo.sv,
xpm_memory.sv,systemverilog,xil_defaultlib,../../../../../../../../../../Xilinx/Vivado/2019.1/data/ip/xpm/xpm_memory/hdl/xpm_memory.sv,
xpm_VCOMP.vhd,vhdl,xpm,../../../../../../../../../../Xilinx/Vivado/2019.1/data/ip/xpm/xpm_VCOMP.vhd,
xbip_utils_v3_0_vh_rfs.vhd,vhdl,xbip_utils_v3_0_10,../../../ipstatic/hdl/xbip_utils_v3_0_vh_rfs.vhd,
c_reg_fd_v12_0_vh_rfs.vhd,vhdl,c_reg_fd_v12_0_6,../../../ipstatic/hdl/c_reg_fd_v12_0_vh_rfs.vhd,
xbip_dsp48_wrapper_v3_0_vh_rfs.vhd,vhdl,xbip_dsp48_wrapper_v3_0_4,../../../ipstatic/hdl/xbip_dsp48_wrapper_v3_0_vh_rfs.vhd,
xbip_pipe_v3_0_vh_rfs.vhd,vhdl,xbip_pipe_v3_0_6,../../../ipstatic/hdl/xbip_pipe_v3_0_vh_rfs.vhd,
xbip_dsp48_addsub_v3_0_vh_rfs.vhd,vhdl,xbip_dsp48_addsub_v3_0_6,../../../ipstatic/hdl/xbip_dsp48_addsub_v3_0_vh_rfs.vhd,
xbip_addsub_v3_0_vh_rfs.vhd,vhdl,xbip_addsub_v3_0_6,../../../ipstatic/hdl/xbip_addsub_v3_0_vh_rfs.vhd,
c_addsub_v12_0_vh_rfs.vhd,vhdl,c_addsub_v12_0_13,../../../ipstatic/hdl/c_addsub_v12_0_vh_rfs.vhd,
add_s18s18.vhd,vhdl,xil_defaultlib,../../../../Noeun_A1.srcs/sources_1/ip/add_s18s18/sim/add_s18s18.vhd,
glbl.v,Verilog,xil_defaultlib,glbl.v
