01000100
01100101
01110011
01101001
01100111
01101110
01100101
01100100
00100000
01100010
01111001
00100000
01001100
01000101
01000101
00100000
01010011
01100101
01101111
01101110
01100111
00101101
01111001
01110101
01101110
00101110
00100000
01000011
01101111
01110000
01111001
01110010
01101001
01100111
01101000
01110100
00100000
00110010
00110000
00110001
00111000
00101110
00100000
01001000
01010101
01010010
01000001
00100000
01000011
01101111
00101110
00101100
01001100
01110100
01100100
00101110
00100000
01000001
01101100
01101100
00100000
01110010
01101001
01100111
01101000
01110100
01110011
00100000
01110010
01100101
01110011
01100101
01110010
01110110
01100101
01100100
00101110
