;
memory_initialization_radix = 16;
memory_initialization_vector =
8000,
8000,
8000,
8000,
8000,
8000,
8000,
8000,
8000,
8000,
8000,
8000,
8000,
8000,
8000,
8000,
8000,
8000,
8000,
8000,
8000,
8001,
8002,
8003,
8004,
8005,
8006,
8007,
8008,
8009,
800A,
800B,
800C,
800D,
800E,
800F
8010,
8011,
8012,
8013,
8014,
000A,
000B,
000C,
000D,
000E,
000F,
0010,
0011,
0012,
0013,
0014,
0015,
0016,
0017,
0018,
0009,
000A,
000B,
001C,
001D,
001E,
001E,
001E,
001E,
001E,
001E,
001E,
001E,
001E,
001E,
001E,
001E,
001E,
001E,
001E,
001E,
001E,
001E,
001E,
001E,
001E,
001E,
001E,
001E,
001E,
001E,
001E,
001E,
001E,
001E,
001E,
001E,
001E,
001E,
001E,
001E,
001E,
001E,
001E,
001E;