Copyright 1986-2019 Xilinx, Inc. All Rights Reserved.
-----------------------------------------------------------------------------------------------------------
| Tool Version : Vivado v.2019.1 (win64) Build 2552052 Fri May 24 14:49:42 MDT 2019
| Date         : Mon Dec 13 16:34:05 2021
| Host         : DESKTOP-HIGTGHP running 64-bit major release  (build 9200)
| Command      : report_utilization -file Noeun_A1_utilization_synth.rpt -pb Noeun_A1_utilization_synth.pb
| Design       : Noeun_A1
| Device       : xcku5pffvb676-1
| Design State : Synthesized
-----------------------------------------------------------------------------------------------------------

Utilization Design Information

Table of Contents
-----------------
1. CLB Logic
1.1 Summary of Registers by Type
2. BLOCKRAM
3. ARITHMETIC
4. I/O
5. CLOCK
6. ADVANCED
7. CONFIGURATION
8. Primitives
9. Black Boxes
10. Instantiated Netlists

1. CLB Logic
------------

+----------------------------+------+-------+-----------+-------+
|          Site Type         | Used | Fixed | Available | Util% |
+----------------------------+------+-------+-----------+-------+
| CLB LUTs*                  | 2234 |     0 |    216960 |  1.03 |
|   LUT as Logic             | 2229 |     0 |    216960 |  1.03 |
|   LUT as Memory            |    5 |     0 |     99840 | <0.01 |
|     LUT as Distributed RAM |    0 |     0 |           |       |
|     LUT as Shift Register  |    5 |     0 |           |       |
| CLB Registers              | 2691 |     0 |    433920 |  0.62 |
|   Register as Flip Flop    | 2691 |     0 |    433920 |  0.62 |
|   Register as Latch        |    0 |     0 |    433920 |  0.00 |
| CARRY8                     |   58 |     0 |     27120 |  0.21 |
| F7 Muxes                   |    5 |     0 |    108480 | <0.01 |
| F8 Muxes                   |    0 |     0 |     54240 |  0.00 |
| F9 Muxes                   |    0 |     0 |     27120 |  0.00 |
+----------------------------+------+-------+-----------+-------+
* Warning! The Final LUT count, after physical optimizations and full implementation, is typically lower. Run opt_design after synthesis, if not already completed, for a more realistic count.


1.1 Summary of Registers by Type
--------------------------------

+-------+--------------+-------------+--------------+
| Total | Clock Enable | Synchronous | Asynchronous |
+-------+--------------+-------------+--------------+
| 0     |            _ |           - |            - |
| 0     |            _ |           - |          Set |
| 0     |            _ |           - |        Reset |
| 0     |            _ |         Set |            - |
| 0     |            _ |       Reset |            - |
| 0     |          Yes |           - |            - |
| 0     |          Yes |           - |          Set |
| 0     |          Yes |           - |        Reset |
| 27    |          Yes |         Set |            - |
| 2664  |          Yes |       Reset |            - |
+-------+--------------+-------------+--------------+


2. BLOCKRAM
-----------

+----------------+------+-------+-----------+-------+
|    Site Type   | Used | Fixed | Available | Util% |
+----------------+------+-------+-----------+-------+
| Block RAM Tile |    0 |     0 |       480 |  0.00 |
|   RAMB36/FIFO* |    0 |     0 |       480 |  0.00 |
|   RAMB18       |    0 |     0 |       960 |  0.00 |
| URAM           |    0 |     0 |        64 |  0.00 |
+----------------+------+-------+-----------+-------+
* Note: Each Block RAM Tile only has one FIFO logic available and therefore can accommodate only one FIFO36E2 or one FIFO18E2. However, if a FIFO18E2 occupies a Block RAM Tile, that tile can still accommodate a RAMB18E2


3. ARITHMETIC
-------------

+-----------+------+-------+-----------+-------+
| Site Type | Used | Fixed | Available | Util% |
+-----------+------+-------+-----------+-------+
| DSPs      |    0 |     0 |      1824 |  0.00 |
+-----------+------+-------+-----------+-------+


4. I/O
------

+------------+------+-------+-----------+-------+
|  Site Type | Used | Fixed | Available | Util% |
+------------+------+-------+-----------+-------+
| Bonded IOB |   74 |     0 |       280 | 26.43 |
+------------+------+-------+-----------+-------+


5. CLOCK
--------

+----------------------+------+-------+-----------+-------+
|       Site Type      | Used | Fixed | Available | Util% |
+----------------------+------+-------+-----------+-------+
| GLOBAL CLOCK BUFFERs |    0 |     0 |       256 |  0.00 |
|   BUFGCE             |    0 |     0 |       112 |  0.00 |
|   BUFGCE_DIV         |    0 |     0 |        16 |  0.00 |
|   BUFG_GT            |    0 |     0 |        96 |  0.00 |
|   BUFGCTRL*          |    0 |     0 |        32 |  0.00 |
| PLL                  |    0 |     0 |         8 |  0.00 |
| MMCM                 |    0 |     0 |         4 |  0.00 |
+----------------------+------+-------+-----------+-------+
* Note: Each used BUFGCTRL counts as two GLOBAL CLOCK BUFFERs. This table does not include global clocking resources, only buffer cell usage. See the Clock Utilization Report (report_clock_utilization) for detailed accounting of global clocking resource availability.


6. ADVANCED
-----------

+-----------------+------+-------+-----------+-------+
|    Site Type    | Used | Fixed | Available | Util% |
+-----------------+------+-------+-----------+-------+
| CMACE4          |    0 |     0 |         1 |  0.00 |
| GTYE4_CHANNEL   |    0 |     0 |        16 |  0.00 |
| GTYE4_COMMON    |    0 |     0 |         4 |  0.00 |
| OBUFDS_GTE4     |    0 |     0 |         8 |  0.00 |
| OBUFDS_GTE4_ADV |    0 |     0 |         8 |  0.00 |
| PCIE40E4        |    0 |     0 |         1 |  0.00 |
| SYSMONE4        |    0 |     0 |         1 |  0.00 |
+-----------------+------+-------+-----------+-------+


7. CONFIGURATION
----------------

+-------------+------+-------+-----------+-------+
|  Site Type  | Used | Fixed | Available | Util% |
+-------------+------+-------+-----------+-------+
| BSCANE2     |    0 |     0 |         4 |  0.00 |
| DNA_PORTE2  |    0 |     0 |         1 |  0.00 |
| EFUSE_USR   |    0 |     0 |         1 |  0.00 |
| FRAME_ECCE4 |    0 |     0 |         1 |  0.00 |
| ICAPE3      |    0 |     0 |         2 |  0.00 |
| MASTER_JTAG |    0 |     0 |         1 |  0.00 |
| STARTUPE3   |    0 |     0 |         1 |  0.00 |
+-------------+------+-------+-----------+-------+


8. Primitives
-------------

+-------------+------+---------------------+
|   Ref Name  | Used | Functional Category |
+-------------+------+---------------------+
| FDRE        | 2664 |            Register |
| LUT6        | 1016 |                 CLB |
| LUT5        |  461 |                 CLB |
| LUT4        |  387 |                 CLB |
| LUT2        |  370 |                 CLB |
| LUT3        |  279 |                 CLB |
| LUT1        |   81 |                 CLB |
| CARRY8      |   58 |                 CLB |
| OBUF        |   40 |                 I/O |
| FDSE        |   27 |            Register |
| OBUFT       |   26 |                 I/O |
| INBUF       |   17 |                 I/O |
| IBUFCTRL    |   17 |              Others |
| MUXF7       |    5 |                 CLB |
| SRLC32E     |    4 |                 CLB |
| SRL16E      |    1 |                 CLB |
| IBUFDS_GTE4 |    1 |                 I/O |
+-------------+------+---------------------+


9. Black Boxes
--------------

+-------------------+------+
|      Ref Name     | Used |
+-------------------+------+
| add_s18s18        |   10 |
| lv_table_16x32    |    8 |
| mult_differ       |    6 |
| fifo_regout_32x16 |    4 |
| fifo_regin_47x16  |    4 |
| mult_s16s16       |    2 |
| lv_table_7x1024   |    2 |
| lv_table_16x512   |    2 |
| lv_table_16x16k   |    2 |
| fifosd_17x16      |    2 |
| fifod_17x16       |    2 |
| anti_db_tb        |    2 |
| xdma_0            |    1 |
| rom_cr            |    1 |
| mult_u32u8        |    1 |
| mgc_table_26x     |    1 |
| fifosd_26x32      |    1 |
| fifosd_10x16      |    1 |
| clk_wiz_b         |    1 |
| axi_uartlite_0    |    1 |
+-------------------+------+


10. Instantiated Netlists
-------------------------

+----------+------+
| Ref Name | Used |
+----------+------+


